{
  "page": 1,
  "per_page": 15,
  "photos": [
    {
      "id": 247676,
      "width": 4836,
      "height": 3372,
      "url": "https://www.pexels.com/photo/low-angle-view-of-spiral-staircase-against-black-background-247676/",
      "photographer": "Pixabay",
      "photographer_url": "https://www.pexels.com/@pixabay",
      "photographer_id": 2659,
      "avg_color": "#00060D",
      "src": {
        "original": "https://images.pexels.com/photos/247676/pexels-photo-247676.jpeg",
        "large2x": "https://images.pexels.com/photos/247676/pexels-photo-247676.jpeg?auto=compress\u0026cs=tinysrgb\u0026dpr=2\u0026h=650\u0026w=940",
        "large": "https://images.pexels.com/photos/247676/pexels-photo-247676.jpeg?auto=compress\u0026cs=tinysrgb\u0026h=650\u0026w=940",
        "medium": "https://images.pexels.com/photos/247676/pexels-photo-247676.jpeg?auto=compress\u0026cs=tinysrgb\u0026h=350",
        "small": "https://images.pexels.com/photos/247676/pexels-photo-247676.jpeg?auto=compress\u0026cs=tinysrgb\u0026h=130",
        "portrait": "https://images.pexels.com/photos/247676/pexels-photo-247676.jpeg?auto=compress\u0026cs=tinysrgb\u0026fit=crop\u0026h=1200\u0026w=800",
        "landscape": "https://images.pexels.com/photos/247676/pexels-photo-247676.jpeg?auto=compress\u0026cs=tinysrgb\u0026fit=crop\u0026h=627\u0026w=1200",
        "tiny": "https://images.pexels.com/photos/247676/pexels-photo-247676.jpeg?auto=compress\u0026cs=tinysrgb\u0026dpr=1\u0026fit=crop\u0026h=200\u0026w=280"
      },
      "liked": false,
      "alt": "Low Angle View of Spiral Staircase Against Black Background"
    },
    {
      "id": 580679,
      "width": 5472,
      "height": 3648,
      "url": "https://www.pexels.com/photo/eclipse-digital-wallpaper-580679/",
      "photographer": "Drew Rae",
      "photographer_url": "https://www.pexels.com/@drewrae",
      "photographer_id": 181363,
      "avg_color": "#120A07",
      "src": {
        "original": "https://images.pexels.com/photos/580679/pexels-photo-580679.jpeg",
        "large2x": "https://images.pexels.com/photos/580679/pexels-photo-580679.jpeg?auto=compress\u0026cs=tinysrgb\u0026dpr=2\u0026h=650\u0026w=940",
        "large": "https://images.pexels.com/photos/580679/pexels-photo-580679.jpeg?auto=compress\u0026cs=tinysrgb\u0026h=650\u0026w=940",
        "medium": "https://images.pexels.com/photos/580679/pexels-photo-580679.jpeg?auto=compress\u0026cs=tinysrgb\u0026h=350",
        "small": "https://images.pexels.com/photos/580679/pexels-photo-580679.jpeg?auto=compress\u0026cs=tinysrgb\u0026h=130",
        "portrait": "https://images.pexels.com/photos/580679/pexels-photo-580679.jpeg?auto=compress\u0026cs=tinysrgb\u0026fit=crop\u0026h=1200\u0026w=800",
        "landscape": "https://images.pexels.com/photos/580679/pexels-photo-580679.jpeg?auto=compress\u0026cs=tinysrgb\u0026fit=crop\u0026h=627\u0026w=1200",
        "tiny": "https://images.pexels.com/photos/580679/pexels-photo-580679.jpeg?auto=compress\u0026cs=tinysrgb\u0026dpr=1\u0026fit=crop\u0026h=200\u0026w=280"
      },
      "liked": false,
      "alt": "Eclipse Digital Wallpaper"
    },
    {
      "id": 2736150,
      "width": 3024,
      "height": 4032,
      "url": "https://www.pexels.com/photo/black-and-white-stairs-vector-art-2736150/",
      "photographer": "Adrien Olichon",
      "photographer_url": "https://www.pexels.com/@adrien-olichon-1257089",
      "photographer_id": 1257089,
      "avg_color": "#3E3E3E",
      "src": {
        "original": "https://images.pexels.com/photos/2736150/pexels-photo-2736150.jpeg",
        "large2x": "https://images.pexels.com/photos/2736150/pexels-photo-2736150.jpeg?auto=compress\u0026cs=tinysrgb\u0026dpr=2\u0026h=650\u0026w=940",
        "large": "https://images.pexels.com/photos/2736150/pexels-photo-2736150.jpeg?auto=compress\u0026cs=tinysrgb\u0026h=650\u0026w=940",
        "medium": "https://images.pexels.com/photos/2736150/pexels-photo-2736150.jpeg?auto=compress\u0026cs=tinysrgb\u0026h=350",
        "small": "https://images.pexels.com/photos/2736150/pexels-photo-2736150.jpeg?auto=compress\u0026cs=tinysrgb\u0026h=130",
        "portrait": "https://images.pexels.com/photos/2736150/pexels-photo-2736150.jpeg?auto=compress\u0026cs=tinysrgb\u0026fit=crop\u0026h=1200\u0026w=800",
        "landscape": "https://images.pexels.com/photos/2736150/pexels-photo-2736150.jpeg?auto=compress\u0026cs=tinysrgb\u0026fit=crop\u0026h=627\u0026w=1200",
        "tiny": "https://images.pexels.com/photos/2736150/pexels-photo-2736150.jpeg?auto=compress\u0026cs=tinysrgb\u0026dpr=1\u0026fit=crop\u0026h=200\u0026w=280"
      },
      "liked": false,
      "alt": "Black and White Stairs Vector Art"
    },
    {
      "id": 2112054,
      "width": 3264,
      "height": 4928,
      "url": "https://www.pexels.com/photo/focus-photography-of-sun-2112054/",
      "photographer": "Ali Arapoğlu",
      "photographer_url": "https://www.pexels.com/@baybiyik",
      "photographer_id": 970280,
      "avg_color": "#634527",
      "src": {
        "original": "https://images.pexels.com/photos/2112054/pexels-photo-2112054.jpeg",
        "large2x": "https://images.pexels.com/photos/2112054/pexels-photo-2112054.jpeg?auto=compress\u0026cs=tinysrgb\u0026dpr=2\u0026h=650\u0026w=940",
        "large": "https://images.pexels.com/photos/2112054/pexels-photo-2112054.jpeg?auto=compress\u0026cs=tinysrgb\u0026h=650\u0026w=940",
        "medium": "https://images.pexels.com/photos/2112054/pexels-photo-2112054.jpeg?auto=compress\u0026cs=tinysrgb\u0026h=350",
        "small": "https://images.pexels.com/photos/2112054/pexels-photo-2112054.jpeg?auto=compress\u0026cs=tinysrgb\u0026h=130",
        "portrait": "https://images.pexels.com/photos/2112054/pexels-photo-2112054.jpeg?auto=compress\u0026cs=tinysrgb\u0026fit=crop\u0026h=1200\u0026w=800",
        "landscape": "https://images.pexels.com/photos/2112054/pexels-photo-2112054.jpeg?auto=compress\u0026cs=tinysrgb\u0026fit=crop\u0026h=627\u0026w=1200",
        "tiny": "https://images.pexels.com/photos/2112054/pexels-photo-2112054.jpeg?auto=compress\u0026cs=tinysrgb\u0026dpr=1\u0026fit=crop\u0026h=200\u0026w=280"
      },
      "liked": false,
      "alt": "Focus Photography of Sun"
    },
    {
      "id": 2652346,
      "width": 5492,
      "height": 6728,
      "url": "https://www.pexels.com/photo/assorted-color-leaves-2652346/",
      "photographer": "Evie Shaffer",
      "photographer_url": "https://www.pexels.com/@evie-shaffer-1259279",
      "photographer_id": 1259279,
      "avg_color": "#FAFAF7",
      "src": {
        "original": "https://images.pexels.com/photos/2652346/pexels-photo-2652346.jpeg",
        "large2x": "https://images.pexels.com/photos/2652346/pexels-photo-2652346.jpeg?auto=compress\u0026cs=tinysrgb\u0026dpr=2\u0026h=650\u0026w=940",
        "large": "https://images.pexels.com/photos/2652346/pexels-photo-2652346.jpeg?auto=compress\u0026cs=tinysrgb\u0026h=650\u0026w=940",
        "medium": "https://images.pexels.com/photos/2652346/pexels-photo-2652346.jpeg?auto=compress\u0026cs=tinysrgb\u0026h=350",
        "small": "https://images.pexels.com/photos/2652346/pexels-photo-2652346.jpeg?auto=compress\u0026cs=tinysrgb\u0026h=130",
        "portrait": "https://images.pexels.com/photos/2652346/pexels-photo-2652346.jpeg?auto=compress\u0026cs=tinysrgb\u0026fit=crop\u0026h=1200\u0026w=800",
        "landscape": "https://images.pexels.com/photos/2652346/pexels-photo-2652346.jpeg?auto=compress\u0026cs=tinysrgb\u0026fit=crop\u0026h=627\u0026w=1200",
        "tiny": "https://images.pexels.com/photos/2652346/pexels-photo-2652346.jpeg?auto=compress\u0026cs=tinysrgb\u0026dpr=1\u0026fit=crop\u0026h=200\u0026w=280"
      },
      "liked": false,
      "alt": "Assorted-color Leaves"
    },
    {
      "id": 96381,
      "width": 4896,
      "height": 3264,
      "url": "https://www.pexels.com/photo/low-angle-photography-of-tunnel-96381/",
      "photographer": "Francesco Ungaro",
      "photographer_url": "https://www.pexels.com/@francesco-ungaro",
      "photographer_id": 21273,
      "avg_color": "#13100C",
      "src": {
        "original": "https://images.pexels.com/photos/96381/pexels-photo-96381.jpeg",
        "large2x": "https://images.pexels.com/photos/96381/pexels-photo-96381.jpeg?auto=compress\u0026cs=tinysrgb\u0026dpr=2\u0026h=650\u0026w=940",
        "large": "https://images.pexels.com/photos/96381/pexels-photo-96381.jpeg?auto=compress\u0026cs=tinysrgb\u0026h=650\u0026w=940",
        "medium": "https://images.pexels.com/photos/96381/pexels-photo-96381.jpeg?auto=compress\u0026cs=tinysrgb\u0026h=350",
        "small": "https://images.pexels.com/photos/96381/pexels-photo-96381.jpeg?auto=compress\u0026cs=tinysrgb\u0026h=130",
        "portrait": "https://images.pexels.com/photos/96381/pexels-photo-96381.jpeg?auto=compress\u0026cs=tinysrgb\u0026fit=crop\u0026h=1200\u0026w=800",
        "landscape": "https://images.pexels.com/photos/96381/pexels-photo-96381.jpeg?auto=compress\u0026cs=tinysrgb\u0026fit=crop\u0026h=627\u0026w=1200",
        "tiny": "https://images.pexels.com/photos/96381/pexels-photo-96381.jpeg?auto=compress\u0026cs=tinysrgb\u0026dpr=1\u0026fit=crop\u0026h=200\u0026w=280"
      },
      "liked": false,
      "alt": "Low Angle Photography of Tunnel"
    },
    {
      "id": 2156883,
      "width": 5184,
      "height": 3888,
      "url": "https://www.pexels.com/photo/graphic-art-2156883/",
      "photographer": "Anni Roenkae",
      "photographer_url": "https://www.pexels.com/@anniroenkae",
      "photographer_id": 989471,
      "avg_color": "#4C2145",
      "src": {
        "original": "https://images.pexels.com/photos/2156883/pexels-photo-2156883.jpeg",
        "large2x": "https://images.pexels.com/photos/2156883/pexels-photo-2156883.jpeg?auto=compress\u0026cs=tinysrgb\u0026dpr=2\u0026h=650\u0026w=940",
        "large": "https://images.pexels.com/photos/2156883/pexels-photo-2156883.jpeg?auto=compress\u0026cs=tinysrgb\u0026h=650\u0026w=940",
        "medium": "https://images.pexels.com/photos/2156883/pexels-photo-2156883.jpeg?auto=compress\u0026cs=tinysrgb\u0026h=350",
        "small": "https://images.pexels.com/photos/2156883/pexels-photo-2156883.jpeg?auto=compress\u0026cs=tinysrgb\u0026h=130",
        "portrait": "https://images.pexels.com/photos/2156883/pexels-photo-2156883.jpeg?auto=compress\u0026cs=tinysrgb\u0026fit=crop\u0026h=1200\u0026w=800",
        "landscape": "https://images.pexels.com/photos/2156883/pexels-photo-2156883.jpeg?auto=compress\u0026cs=tinysrgb\u0026fit=crop\u0026h=627\u0026w=1200",
        "tiny": "https://images.pexels.com/photos/2156883/pexels-photo-2156883.jpeg?auto=compress\u0026cs=tinysrgb\u0026dpr=1\u0026fit=crop\u0026h=200\u0026w=280"
      },
      "liked": false,
      "alt": "graphic art"
    },
    {
      "id": 3336447,
      "width": 3200,
      "height": 3200,
      "url": "https://www.pexels.com/photo/contemporary-art-3336447/",
      "photographer": "Elīna Arāja",
      "photographer_url": "https://www.pexels.com/@elina-araja-1743227",
      "photographer_id": 1743227,
      "avg_color": "#B2B2B2",
      "src": {
        "original": "https://images.pexels.com/photos/3336447/pexels-photo-3336447.jpeg",
        "large2x": "https://images.pexels.com/photos/3336447/pexels-photo-3336447.jpeg?auto=compress\u0026cs=tinysrgb\u0026dpr=2\u0026h=650\u0026w=940",
        "large": "https://images.pexels.com/photos/3336447/pexels-photo-3336447.jpeg?auto=compress\u0026cs=tinysrgb\u0026h=650\u0026w=940",
        "medium": "https://images.pexels.com/photos/3336447/pexels-photo-3336447.jpeg?auto=compress\u0026cs=tinysrgb\u0026h=350",
        "small": "https://images.pexels.com/photos/3336447/pexels-photo-3336447.jpeg?auto=compress\u0026cs=tinysrgb\u0026h=130",
        "portrait": "https://images.pexels.com/photos/3336447/pexels-photo-3336447.jpeg?auto=compress\u0026cs=tinysrgb\u0026fit=crop\u0026h=1200\u0026w=800",
        "landscape": "https://images.pexels.com/photos/3336447/pexels-photo-3336447.jpeg?auto=compress\u0026cs=tinysrgb\u0026fit=crop\u0026h=627\u0026w=1200",
        "tiny": "https://images.pexels.com/photos/3336447/pexels-photo-3336447.jpeg?auto=compress\u0026cs=tinysrgb\u0026dpr=1\u0026fit=crop\u0026h=200\u0026w=280"
      },
      "liked": false,
      "alt": "Contemporary Art"
    },
    {
      "id": 2106442,
      "width": 5760,
      "height": 3840,
      "url": "https://www.pexels.com/photo/transparent-blur-circle-reflection-2106442/",
      "photographer": "Markus Spiske",
      "photographer_url": "https://www.pexels.com/@markusspiske",
      "photographer_id": 19851,
      "avg_color": "#4B525C",
      "src": {
        "original": "https://images.pexels.com/photos/2106442/pexels-photo-2106442.jpeg",
        "large2x": "https://images.pexels.com/photos/2106442/pexels-photo-2106442.jpeg?auto=compress\u0026cs=tinysrgb\u0026dpr=2\u0026h=650\u0026w=940",
        "large": "https://images.pexels.com/photos/2106442/pexels-photo-2106442.jpeg?auto=compress\u0026cs=tinysrgb\u0026h=650\u0026w=940",
        "medium": "https://images.pexels.com/photos/2106442/pexels-photo-2106442.jpeg?auto=compress\u0026cs=tinysrgb\u0026h=350",
        "small": "https://images.pexels.com/photos/2106442/pexels-photo-2106442.jpeg?auto=compress\u0026cs=tinysrgb\u0026h=130",
        "portrait": "https://images.pexels.com/photos/2106442/pexels-photo-2106442.jpeg?auto=compress\u0026cs=tinysrgb\u0026fit=crop\u0026h=1200\u0026w=800",
        "landscape": "https://images.pexels.com/photos/2106442/pexels-photo-2106442.jpeg?auto=compress\u0026cs=tinysrgb\u0026fit=crop\u0026h=627\u0026w=1200",
        "tiny": "https://images.pexels.com/photos/2106442/pexels-photo-2106442.jpeg?auto=compress\u0026cs=tinysrgb\u0026dpr=1\u0026fit=crop\u0026h=200\u0026w=280"
      },
      "liked": false,
      "alt": "Free stock photo of ball shaped, blur, bubble"
    },
    {
      "id": 1114883,
      "width": 2680,
      "height": 4020,
      "url": "https://www.pexels.com/photo/low-angle-photography-of-spiral-stair-1114883/",
      "photographer": "Johannes Plenio",
      "photographer_url": "https://www.pexels.com/@jplenio",
      "photographer_id": 424445,
      "avg_color": "#BC8066",
      "src": {
        "original": "https://images.pexels.com/photos/1114883/pexels-photo-1114883.jpeg",
        "large2x": "https://images.pexels.com/photos/1114883/pexels-photo-1114883.jpeg?auto=compress\u0026cs=tinysrgb\u0026dpr=2\u0026h=650\u0026w=940",
        "large": "https://images.pexels.com/photos/1114883/pexels-photo-1114883.jpeg?auto=compress\u0026cs=tinysrgb\u0026h=650\u0026w=940",
        "medium": "https://images.pexels.com/photos/1114883/pexels-photo-1114883.jpeg?auto=compress\u0026cs=tinysrgb\u0026h=350",
        "small": "https://images.pexels.com/photos/1114883/pexels-photo-1114883.jpeg?auto=compress\u0026cs=tinysrgb\u0026h=130",
        "portrait": "https://images.pexels.com/photos/1114883/pexels-photo-1114883.jpeg?auto=compress\u0026cs=tinysrgb\u0026fit=crop\u0026h=1200\u0026w=800",
        "landscape": "https://images.pexels.com/photos/1114883/pexels-photo-1114883.jpeg?auto=compress\u0026cs=tinysrgb\u0026fit=crop\u0026h=627\u0026w=1200",
        "tiny": "https://images.pexels.com/photos/1114883/pexels-photo-1114883.jpeg?auto=compress\u0026cs=tinysrgb\u0026dpr=1\u0026fit=crop\u0026h=200\u0026w=280"
      },
      "liked": false,
      "alt": "Low Angle Photography of Spiral Stair"
    },
    {
      "id": 172483,
      "width": 4000,
      "height": 2250,
      "url": "https://www.pexels.com/photo/gray-scale-photo-of-road-172483/",
      "photographer": "Tuur  Tisseghem",
      "photographer_url": "https://www.pexels.com/@tuurt",
      "photographer_id": 43262,
      "avg_color": "#2C2C2C",
      "src": {
        "original": "https://images.pexels.com/photos/172483/pexels-photo-172483.jpeg",
        "large2x": "https://images.pexels.com/photos/172483/pexels-photo-172483.jpeg?auto=compress\u0026cs=tinysrgb\u0026dpr=2\u0026h=650\u0026w=940",
        "large": "https://images.pexels.com/photos/172483/pexels-photo-172483.jpeg?auto=compress\u0026cs=tinysrgb\u0026h=650\u0026w=940",
        "medium": "https://images.pexels.com/photos/172483/pexels-photo-172483.jpeg?auto=compress\u0026cs=tinysrgb\u0026h=350",
        "small": "https://images.pexels.com/photos/172483/pexels-photo-172483.jpeg?auto=compress\u0026cs=tinysrgb\u0026h=130",
        "portrait": "https://images.pexels.com/photos/172483/pexels-photo-172483.jpeg?auto=compress\u0026cs=tinysrgb\u0026fit=crop\u0026h=1200\u0026w=800",
        "landscape": "https://images.pexels.com/photos/172483/pexels-photo-172483.jpeg?auto=compress\u0026cs=tinysrgb\u0026fit=crop\u0026h=627\u0026w=1200",
        "tiny": "https://images.pexels.com/photos/172483/pexels-photo-172483.jpeg?auto=compress\u0026cs=tinysrgb\u0026dpr=1\u0026fit=crop\u0026h=200\u0026w=280"
      },
      "liked": false,
      "alt": "Gray Scale Photo of Road"
    },
    {
      "id": 1050558,
      "width": 4644,
      "height": 3096,
      "url": "https://www.pexels.com/photo/black-camera-lens-1050558/",
      "photographer": "Steve Johnson",
      "photographer_url": "https://www.pexels.com/@steve",
      "photographer_id": 287172,
      "avg_color": "#9D9D9D",
      "src": {
        "original": "https://images.pexels.com/photos/1050558/pexels-photo-1050558.jpeg",
        "large2x": "https://images.pexels.com/photos/1050558/pexels-photo-1050558.jpeg?auto=compress\u0026cs=tinysrgb\u0026dpr=2\u0026h=650\u0026w=940",
        "large": "https://images.pexels.com/photos/1050558/pexels-photo-1050558.jpeg?auto=compress\u0026cs=tinysrgb\u0026h=650\u0026w=940",
        "medium": "https://images.pexels.com/photos/1050558/pexels-photo-1050558.jpeg?auto=compress\u0026cs=tinysrgb\u0026h=350",
        "small": "https://images.pexels.com/photos/1050558/pexels-photo-1050558.jpeg?auto=compress\u0026cs=tinysrgb\u0026h=130",
        "portrait": "https://images.pexels.com/photos/1050558/pexels-photo-1050558.jpeg?auto=compress\u0026cs=tinysrgb\u0026fit=crop\u0026h=1200\u0026w=800",
        "landscape": "https://images.pexels.com/photos/1050558/pexels-photo-1050558.jpeg?auto=compress\u0026cs=tinysrgb\u0026fit=crop\u0026h=627\u0026w=1200",
        "tiny": "https://images.pexels.com/photos/1050558/pexels-photo-1050558.jpeg?auto=compress\u0026cs=tinysrgb\u0026dpr=1\u0026fit=crop\u0026h=200\u0026w=280"
      },
      "liked": false,
      "alt": "Black Camera Lens"
    },
    {
      "id": 2916450,
      "width": 5394,
      "height": 3596,
      "url": "https://www.pexels.com/photo/white-mug-on-red-background-2916450/",
      "photographer": "Stas Knop",
      "photographer_url": "https://www.pexels.com/@stasknop",
      "photographer_id": 442409,
      "avg_color": "#F10708",
      "src": {
        "original": "https://images.pexels.com/photos/2916450/pexels-photo-2916450.jpeg",
        "large2x": "https://images.pexels.com/photos/2916450/pexels-photo-2916450.jpeg?auto=compress\u0026cs=tinysrgb\u0026dpr=2\u0026h=650\u0026w=940",
        "large": "https://images.pexels.com/photos/2916450/pexels-photo-2916450.jpeg?auto=compress\u0026cs=tinysrgb\u0026h=650\u0026w=940",
        "medium": "https://images.pexels.com/photos/2916450/pexels-photo-2916450.jpeg?auto=compress\u0026cs=tinysrgb\u0026h=350",
        "small": "https://images.pexels.com/photos/2916450/pexels-photo-2916450.jpeg?auto=compress\u0026cs=tinysrgb\u0026h=130",
        "portrait": "https://images.pexels.com/photos/2916450/pexels-photo-2916450.jpeg?auto=compress\u0026cs=tinysrgb\u0026fit=crop\u0026h=1200\u0026w=800",
        "landscape": "https://images.pexels.com/photos/2916450/pexels-photo-2916450.jpeg?auto=compress\u0026cs=tinysrgb\u0026fit=crop\u0026h=627\u0026w=1200",
        "tiny": "https://images.pexels.com/photos/2916450/pexels-photo-2916450.jpeg?auto=compress\u0026cs=tinysrgb\u0026dpr=1\u0026fit=crop\u0026h=200\u0026w=280"
      },
      "liked": false,
      "alt": "White Mug on Red Background"
    },
    {
      "id": 707582,
      "width": 6980,
      "height": 4267,
      "url": "https://www.pexels.com/photo/wall-clock-at-5-50-707582/",
      "photographer": "Cats Coming",
      "photographer_url": "https://www.pexels.com/@catscoming",
      "photographer_id": 116286,
      "avg_color": "#D0D7DC",
      "src": {
        "original": "https://images.pexels.com/photos/707582/pexels-photo-707582.jpeg",
        "large2x": "https://images.pexels.com/photos/707582/pexels-photo-707582.jpeg?auto=compress\u0026cs=tinysrgb\u0026dpr=2\u0026h=650\u0026w=940",
        "large": "https://images.pexels.com/photos/707582/pexels-photo-707582.jpeg?auto=compress\u0026cs=tinysrgb\u0026h=650\u0026w=940",
        "medium": "https://images.pexels.com/photos/707582/pexels-photo-707582.jpeg?auto=compress\u0026cs=tinysrgb\u0026h=350",
        "small": "https://images.pexels.com/photos/707582/pexels-photo-707582.jpeg?auto=compress\u0026cs=tinysrgb\u0026h=130",
        "portrait": "https://images.pexels.com/photos/707582/pexels-photo-707582.jpeg?auto=compress\u0026cs=tinysrgb\u0026fit=crop\u0026h=1200\u0026w=800",
        "landscape": "https://images.pexels.com/photos/707582/pexels-photo-707582.jpeg?auto=compress\u0026cs=tinysrgb\u0026fit=crop\u0026h=627\u0026w=1200",
        "tiny": "https://images.pexels.com/photos/707582/pexels-photo-707582.jpeg?auto=compress\u0026cs=tinysrgb\u0026dpr=1\u0026fit=crop\u0026h=200\u0026w=280"
      },
      "liked": false,
      "alt": "Wall Clock at 5:50"
    },
    {
      "id": 3608328,
      "width": 4000,
      "height": 5500,
      "url": "https://www.pexels.com/photo/modern-art-3608328/",
      "photographer": "Susn Dybvik",
      "photographer_url": "https://www.pexels.com/@iamsusndybvik",
      "photographer_id": 1720445,
      "avg_color": "#6C8485",
      "src": {
        "original": "https://images.pexels.com/photos/3608328/pexels-photo-3608328.jpeg",
        "large2x": "https://images.pexels.com/photos/3608328/pexels-photo-3608328.jpeg?auto=compress\u0026cs=tinysrgb\u0026dpr=2\u0026h=650\u0026w=940",
        "large": "https://images.pexels.com/photos/3608328/pexels-photo-3608328.jpeg?auto=compress\u0026cs=tinysrgb\u0026h=650\u0026w=940",
        "medium": "https://images.pexels.com/photos/3608328/pexels-photo-3608328.jpeg?auto=compress\u0026cs=tinysrgb\u0026h=350",
        "small": "https://images.pexels.com/photos/3608328/pexels-photo-3608328.jpeg?auto=compress\u0026cs=tinysrgb\u0026h=130",
        "portrait": "https://images.pexels.com/photos/3608328/pexels-photo-3608328.jpeg?auto=compress\u0026cs=tinysrgb\u0026fit=crop\u0026h=1200\u0026w=800",
        "landscape": "https://images.pexels.com/photos/3608328/pexels-photo-3608328.jpeg?auto=compress\u0026cs=tinysrgb\u0026fit=crop\u0026h=627\u0026w=1200",
        "tiny": "https://images.pexels.com/photos/3608328/pexels-photo-3608328.jpeg?auto=compress\u0026cs=tinysrgb\u0026dpr=1\u0026fit=crop\u0026h=200\u0026w=280"
      },
      "liked": false,
      "alt": "Modern Art"
    }
  ],
  "total_results": 1750,
  "next_page": "https://api.pexels.com/v1/search/?page=2\u0026per_page=15\u0026query=circle"
}
